{
  "project_info": {
    "project_number": "794788277827",
    "project_id": "kotlin-android-development",
    "storage_bucket": "kotlin-android-development.appspot.com"
  },
  "client": [
    {
      "client_info": {
        "mobilesdk_app_id": "1:794788277827:android:18634c1be532fa075d6ef6",
        "android_client_info": {
          "package_name": "ru.dexsys.myfirstapp.client"
        }
      },
      "oauth_client": [
        {
          "client_id": "794788277827-pksv2eb0osv69qebsmppi6kitj1b0los.apps.googleusercontent.com",
          "client_type": 3
        }
      ],
      "api_key": [
        {
          "current_key": "AIzaSyC5pmIiK2ys5V5OtXromMryB_6uERMIUGA"
        }
      ],
      "services": {
        "appinvite_service": {
          "other_platform_oauth_client": [
            {
              "client_id": "794788277827-pksv2eb0osv69qebsmppi6kitj1b0los.apps.googleusercontent.com",
              "client_type": 3
            }
          ]
        }
      }
    }
  ],
  "configuration_version": "1"
}